[ {
  "name" : "AllBookings",
  "type" : "PAGE",
  "params" : [ ]
}, {
  "name" : "Common",
  "type" : "PARTIAL",
  "params" : [ ]
}, {
  "name" : "Data",
  "type" : "PAGE",
  "params" : [ ]
}, {
  "name" : "Details",
  "type" : "PAGE",
  "params" : [ {
    "name" : "BookingId",
    "type" : "integer"
  } ]
}, {
  "name" : "FlightConfirmation",
  "type" : "PAGE",
  "params" : [ {
    "name" : "BookingId",
    "type" : "string"
  } ]
}, {
  "name" : "Flight_Details",
  "type" : "PARTIAL",
  "params" : [ ]
}, {
  "name" : "FreeToChange",
  "type" : "POPOVER",
  "params" : [ ]
}, {
  "name" : "Login",
  "type" : "PAGE",
  "params" : [ ]
}, {
  "name" : "Main",
  "type" : "PAGE",
  "params" : [ ]
}, {
  "name" : "Page",
  "type" : "PAGE",
  "params" : [ ]
}, {
  "name" : "Pay_to_Change",
  "type" : "PARTIAL",
  "params" : [ ]
}, {
  "name" : "QRTTPC_DETAILS",
  "type" : "POPOVER",
  "params" : [ ]
}, {
  "name" : "Quote_Details",
  "type" : "POPOVER",
  "params" : [ ]
}, {
  "name" : "SeatingLayout",
  "type" : "PAGE",
  "params" : [ ]
}, {
  "name" : "SpecialOffer",
  "type" : "POPOVER",
  "params" : [ ]
}, {
  "name" : "extra",
  "type" : "PAGE",
  "params" : [ ]
}, {
  "name" : "footer",
  "type" : "PARTIAL",
  "params" : [ ]
}, {
  "name" : "header",
  "type" : "PARTIAL",
  "params" : [ ]
}, {
  "name" : "leftnav",
  "type" : "PARTIAL",
  "params" : [ ]
}, {
  "name" : "rightnav",
  "type" : "PARTIAL",
  "params" : [ ]
}, {
  "name" : "seatArrangement",
  "type" : "PAGE",
  "params" : [ ]
}, {
  "name" : "test",
  "type" : "PAGE",
  "params" : [ ]
}, {
  "name" : "topnav",
  "type" : "PARTIAL",
  "params" : [ ]
} ]