{
  "lvAssocitatePassengerWithBooking" : {
    "_id" : "wm-lvAssocitatePassengerWithBooking-wm.LiveVariable-1455698384462",
    "name" : "lvAssocitatePassengerWithBooking",
    "owner" : "Page",
    "category" : "wm.LiveVariable",
    "dataBinding" : [ {
      "target" : "bookingId",
      "value" : "bind:pageParams.BookingId",
      "type" : "number"
    }, {
      "target" : "passengerId",
      "value" : "bind:Variables.lvInsertPassenger.dataSet.id",
      "type" : "number"
    } ],
    "operation" : "insert",
    "dataSet" : [ ],
    "type" : "Passengergroup",
    "isList" : false,
    "saveInPhonegap" : false,
    "firstRow" : 0,
    "maxResults" : 20,
    "designMaxResults" : 10,
    "onSuccess" : "Variables.svGetPassengersbyBookingID.invoke()",
    "inFlightBehavior" : "executeLast",
    "startUpdate" : false,
    "autoUpdate" : false,
    "transformationRequired" : false,
    "liveSource" : "FDCallCenterDB",
    "ignoreCase" : true,
    "matchMode" : "start",
    "propertiesMap" : {
      "columns" : [ {
        "fieldName" : "booking",
        "type" : "integer",
        "fullyQualifiedType" : "integer",
        "columnName" : "BOOKING_ID",
        "isPrimaryKey" : true,
        "notNull" : true,
        "length" : 255,
        "precision" : 10,
        "generator" : "assigned",
        "isRelated" : true,
        "relatedTableName" : "BOOKING",
        "relatedEntityName" : "Booking",
        "relatedColumnName" : "bookingId",
        "relatedFieldName" : "booking.id",
        "isList" : false,
        "targetTable" : "BOOKING",
        "scale" : 0,
        "columns" : [ {
          "fieldName" : "flightByFroFlightId",
          "type" : "integer",
          "fullyQualifiedType" : "integer",
          "columnName" : "FRO_FLIGHT_ID",
          "isPrimaryKey" : false,
          "notNull" : false,
          "length" : 255,
          "precision" : 10,
          "generator" : "assigned",
          "isRelated" : true,
          "relatedColumnName" : "froFlightId",
          "targetTable" : "FLIGHT",
          "scale" : 0
        }, {
          "fieldName" : "flightByToFlightId",
          "type" : "integer",
          "fullyQualifiedType" : "integer",
          "columnName" : "TO_FLIGHT_ID",
          "isPrimaryKey" : false,
          "notNull" : false,
          "length" : 255,
          "precision" : 10,
          "generator" : "assigned",
          "isRelated" : true,
          "relatedColumnName" : "toFlightId",
          "targetTable" : "FLIGHT",
          "scale" : 0
        }, {
          "fieldName" : "journey",
          "type" : "integer",
          "fullyQualifiedType" : "integer",
          "columnName" : "JOURNEY_ID",
          "isPrimaryKey" : false,
          "notNull" : false,
          "length" : 255,
          "precision" : 10,
          "generator" : "assigned",
          "isRelated" : true,
          "relatedColumnName" : "journeyId",
          "targetTable" : "JOURNEY",
          "scale" : 0
        }, {
          "fieldName" : "passengerByPrimaryPassengerId",
          "type" : "integer",
          "fullyQualifiedType" : "integer",
          "columnName" : "PRIMARY_PASSENGER_ID",
          "isPrimaryKey" : false,
          "notNull" : false,
          "length" : 255,
          "precision" : 10,
          "generator" : "assigned",
          "isRelated" : true,
          "relatedColumnName" : "primaryPassengerId",
          "targetTable" : "PASSENGER",
          "scale" : 0
        }, {
          "fieldName" : "passengerByPassengerId",
          "type" : "integer",
          "fullyQualifiedType" : "integer",
          "columnName" : "PASSENGER_ID",
          "isPrimaryKey" : false,
          "notNull" : false,
          "length" : 255,
          "precision" : 10,
          "generator" : "assigned",
          "isRelated" : true,
          "relatedColumnName" : "passengerId",
          "targetTable" : "PASSENGER",
          "scale" : 0
        }, {
          "fieldName" : "service",
          "type" : "integer",
          "fullyQualifiedType" : "integer",
          "columnName" : "SERVICE_ID",
          "isPrimaryKey" : false,
          "notNull" : false,
          "length" : 255,
          "precision" : 10,
          "generator" : "assigned",
          "isRelated" : true,
          "relatedColumnName" : "serviceId",
          "targetTable" : "SERVICE",
          "scale" : 0
        }, {
          "fieldName" : "id",
          "type" : "integer",
          "fullyQualifiedType" : "integer",
          "columnName" : "ID",
          "isPrimaryKey" : true,
          "notNull" : true,
          "length" : 255,
          "precision" : 10,
          "generator" : "identity",
          "isRelated" : false,
          "scale" : 0
        }, {
          "fieldName" : "pnr",
          "type" : "string",
          "fullyQualifiedType" : "string",
          "columnName" : "PNR",
          "isPrimaryKey" : false,
          "notNull" : false,
          "length" : 255,
          "precision" : 19,
          "generator" : "assigned",
          "isRelated" : false,
          "scale" : 0
        }, {
          "fieldName" : "classType",
          "type" : "string",
          "fullyQualifiedType" : "string",
          "columnName" : "CLASS_TYPE",
          "isPrimaryKey" : false,
          "notNull" : true,
          "length" : 255,
          "precision" : 19,
          "generator" : "assigned",
          "isRelated" : false,
          "scale" : 0
        }, {
          "fieldName" : "totalQuote",
          "type" : "integer",
          "fullyQualifiedType" : "integer",
          "columnName" : "TOTAL_QUOTE",
          "isPrimaryKey" : false,
          "notNull" : true,
          "length" : 255,
          "precision" : 10,
          "generator" : "assigned",
          "isRelated" : false,
          "scale" : 0
        }, {
          "fieldName" : "totalPassengers",
          "type" : "integer",
          "fullyQualifiedType" : "integer",
          "columnName" : "TOTAL_PASSENGERS",
          "isPrimaryKey" : false,
          "notNull" : true,
          "length" : 255,
          "precision" : 10,
          "generator" : "assigned",
          "isRelated" : false,
          "scale" : 0
        }, {
          "fieldName" : "tripType",
          "type" : "string",
          "fullyQualifiedType" : "string",
          "columnName" : "TRIP_TYPE",
          "isPrimaryKey" : false,
          "notNull" : true,
          "length" : 255,
          "precision" : 19,
          "generator" : "assigned",
          "isRelated" : false,
          "scale" : 0
        }, {
          "fieldName" : "comments",
          "type" : "string",
          "fullyQualifiedType" : "string",
          "columnName" : "COMMENTS",
          "isPrimaryKey" : false,
          "notNull" : false,
          "length" : 255,
          "precision" : 19,
          "generator" : "assigned",
          "isRelated" : false,
          "scale" : 0
        }, {
          "fieldName" : "bookingDate",
          "type" : "date",
          "fullyQualifiedType" : "date",
          "columnName" : "BOOKING_DATE",
          "isPrimaryKey" : false,
          "notNull" : false,
          "length" : 10,
          "precision" : 19,
          "generator" : "assigned",
          "isRelated" : false,
          "scale" : 0
        }, {
          "fieldName" : "toFare",
          "type" : "string",
          "fullyQualifiedType" : "string",
          "columnName" : "TO_FARE",
          "isPrimaryKey" : false,
          "notNull" : false,
          "length" : 255,
          "precision" : 19,
          "generator" : "assigned",
          "isRelated" : false,
          "scale" : 0
        }, {
          "fieldName" : "froFare",
          "type" : "string",
          "fullyQualifiedType" : "string",
          "columnName" : "FRO_FARE",
          "isPrimaryKey" : false,
          "notNull" : false,
          "length" : 255,
          "precision" : 19,
          "generator" : "assigned",
          "isRelated" : false,
          "scale" : 0
        } ]
      }, {
        "fieldName" : "passenger",
        "type" : "integer",
        "fullyQualifiedType" : "integer",
        "columnName" : "PASSENGER_ID",
        "isPrimaryKey" : true,
        "notNull" : true,
        "length" : 255,
        "precision" : 10,
        "generator" : "assigned",
        "isRelated" : true,
        "relatedTableName" : "PASSENGER",
        "relatedEntityName" : "Passenger",
        "relatedColumnName" : "passengerId",
        "relatedFieldName" : "passenger.id",
        "isList" : false,
        "targetTable" : "PASSENGER",
        "scale" : 0,
        "columns" : [ {
          "fieldName" : "id",
          "type" : "integer",
          "fullyQualifiedType" : "integer",
          "columnName" : "ID",
          "isPrimaryKey" : true,
          "notNull" : true,
          "length" : 255,
          "precision" : 10,
          "generator" : "identity",
          "isRelated" : false,
          "scale" : 0
        }, {
          "fieldName" : "address",
          "type" : "string",
          "fullyQualifiedType" : "string",
          "columnName" : "ADDRESS",
          "isPrimaryKey" : false,
          "notNull" : false,
          "length" : 255,
          "precision" : 19,
          "generator" : "assigned",
          "isRelated" : false,
          "scale" : 0
        }, {
          "fieldName" : "age",
          "type" : "integer",
          "fullyQualifiedType" : "integer",
          "columnName" : "AGE",
          "isPrimaryKey" : false,
          "notNull" : false,
          "length" : 255,
          "precision" : 10,
          "generator" : "assigned",
          "isRelated" : false,
          "scale" : 0
        }, {
          "fieldName" : "country",
          "type" : "string",
          "fullyQualifiedType" : "string",
          "columnName" : "COUNTRY",
          "isPrimaryKey" : false,
          "notNull" : false,
          "length" : 255,
          "precision" : 19,
          "generator" : "assigned",
          "isRelated" : false,
          "scale" : 0
        }, {
          "fieldName" : "email",
          "type" : "string",
          "fullyQualifiedType" : "string",
          "columnName" : "EMAIL",
          "isPrimaryKey" : false,
          "notNull" : true,
          "length" : 255,
          "precision" : 19,
          "generator" : "assigned",
          "isRelated" : false,
          "scale" : 0
        }, {
          "fieldName" : "firstName",
          "type" : "string",
          "fullyQualifiedType" : "string",
          "columnName" : "FIRST_NAME",
          "isPrimaryKey" : false,
          "notNull" : true,
          "length" : 255,
          "precision" : 19,
          "generator" : "assigned",
          "isRelated" : false,
          "scale" : 0
        }, {
          "fieldName" : "frequentFlyerNumber",
          "type" : "string",
          "fullyQualifiedType" : "string",
          "columnName" : "FREQUENT_FLYER_NUMBER",
          "isPrimaryKey" : false,
          "notNull" : false,
          "length" : 255,
          "precision" : 19,
          "generator" : "assigned",
          "isRelated" : false,
          "scale" : 0
        }, {
          "fieldName" : "lastName",
          "type" : "string",
          "fullyQualifiedType" : "string",
          "columnName" : "LAST_NAME",
          "isPrimaryKey" : false,
          "notNull" : false,
          "length" : 255,
          "precision" : 19,
          "generator" : "assigned",
          "isRelated" : false,
          "scale" : 0
        }, {
          "fieldName" : "middleName",
          "type" : "string",
          "fullyQualifiedType" : "string",
          "columnName" : "MIDDLE_NAME",
          "isPrimaryKey" : false,
          "notNull" : false,
          "length" : 255,
          "precision" : 19,
          "generator" : "assigned",
          "isRelated" : false,
          "scale" : 0
        }, {
          "fieldName" : "phone",
          "type" : "string",
          "fullyQualifiedType" : "string",
          "columnName" : "PHONE",
          "isPrimaryKey" : false,
          "notNull" : true,
          "length" : 255,
          "precision" : 19,
          "generator" : "assigned",
          "isRelated" : false,
          "scale" : 0
        }, {
          "fieldName" : "title",
          "type" : "string",
          "fullyQualifiedType" : "string",
          "columnName" : "TITLE",
          "isPrimaryKey" : false,
          "notNull" : false,
          "length" : 255,
          "precision" : 19,
          "generator" : "assigned",
          "isRelated" : false,
          "scale" : 0
        } ]
      } ],
      "entityName" : "Passengergroup",
      "fullyQualifiedName" : "com.fdcallcenter.fdcallcenterdb.Passengergroup",
      "tableType" : "TABLE",
      "primaryFields" : [ "bookingId", "passengerId" ]
    },
    "tableName" : "PASSENGERGROUP",
    "tableType" : "TABLE",
    "properties" : [ "booking", "passenger" ],
    "relatedTables" : [ {
      "columnName" : "booking",
      "relationName" : "booking",
      "type" : "Booking",
      "watchOn" : "FDCallCenterDBBookingData",
      "package" : "com.fdcallcenter.fdcallcenterdb.Passengergroup"
    }, {
      "columnName" : "passenger",
      "relationName" : "passenger",
      "type" : "Passenger",
      "watchOn" : "FDCallCenterDBPassengerData",
      "package" : "com.fdcallcenter.fdcallcenterdb.Passengergroup"
    } ],
    "filterFields" : { },
    "inputFields" : { },
    "package" : "com.fdcallcenter.fdcallcenterdb.Passengergroup"
  },
  "lvBookingDetails" : {
    "_id" : "wm-lvBookingDetails-wm.LiveVariable-1455792102792",
    "name" : "lvBookingDetails",
    "owner" : "Page",
    "category" : "wm.LiveVariable",
    "dataBinding" : [ {
      "target" : "id",
      "value" : "bind:pageParams.BookingId",
      "type" : "number"
    } ],
    "operation" : "read",
    "dataSet" : [ ],
    "type" : "Booking",
    "isList" : false,
    "saveInPhonegap" : false,
    "firstRow" : 0,
    "maxResults" : 20,
    "designMaxResults" : 10,
    "onSuccess" : "lvBookingDetailsonSuccess($event, $scope)",
    "inFlightBehavior" : "executeLast",
    "startUpdate" : false,
    "autoUpdate" : true,
    "transformationRequired" : false,
    "liveSource" : "FDCallCenterDB",
    "ignoreCase" : true,
    "matchMode" : "start",
    "propertiesMap" : {
      "columns" : [ {
        "fieldName" : "flightByFroFlightId",
        "type" : "integer",
        "fullyQualifiedType" : "integer",
        "columnName" : "FRO_FLIGHT_ID",
        "isPrimaryKey" : false,
        "notNull" : false,
        "length" : 255,
        "precision" : 10,
        "generator" : "assigned",
        "isRelated" : true,
        "relatedTableName" : "FLIGHT",
        "relatedEntityName" : "Flight",
        "relatedColumnName" : "froFlightId",
        "relatedFieldName" : "flightByFroFlightId.id",
        "isList" : false,
        "targetTable" : "FLIGHT",
        "scale" : 0,
        "columns" : [ {
          "fieldName" : "airportByDestinationAirport",
          "type" : "string",
          "fullyQualifiedType" : "string",
          "columnName" : "DESTINATION_AIRPORT",
          "isPrimaryKey" : false,
          "notNull" : false,
          "length" : 255,
          "precision" : 19,
          "generator" : "assigned",
          "isRelated" : true,
          "relatedColumnName" : "destinationAirport",
          "targetTable" : "AIRPORT",
          "scale" : 0
        }, {
          "fieldName" : "airportBySourceAirport",
          "type" : "string",
          "fullyQualifiedType" : "string",
          "columnName" : "SOURCE_AIRPORT",
          "isPrimaryKey" : false,
          "notNull" : false,
          "length" : 255,
          "precision" : 19,
          "generator" : "assigned",
          "isRelated" : true,
          "relatedColumnName" : "sourceAirport",
          "targetTable" : "AIRPORT",
          "scale" : 0
        }, {
          "fieldName" : "fareDetailsByFareDetails",
          "type" : "integer",
          "fullyQualifiedType" : "integer",
          "columnName" : "FARE_DETAILS",
          "isPrimaryKey" : false,
          "notNull" : false,
          "length" : 255,
          "precision" : 10,
          "generator" : "assigned",
          "isRelated" : true,
          "relatedColumnName" : "fareDetails",
          "targetTable" : "FARE_DETAILS",
          "scale" : 0
        }, {
          "fieldName" : "id",
          "type" : "integer",
          "fullyQualifiedType" : "integer",
          "columnName" : "ID",
          "isPrimaryKey" : true,
          "notNull" : true,
          "length" : 255,
          "precision" : 10,
          "generator" : "identity",
          "isRelated" : false,
          "scale" : 0
        }, {
          "fieldName" : "number",
          "type" : "string",
          "fullyQualifiedType" : "string",
          "columnName" : "NUMBER",
          "isPrimaryKey" : false,
          "notNull" : true,
          "length" : 20,
          "precision" : 19,
          "generator" : "assigned",
          "isRelated" : false,
          "scale" : 0
        }, {
          "fieldName" : "departureDate",
          "type" : "date",
          "fullyQualifiedType" : "date",
          "columnName" : "DEPARTURE_DATE",
          "isPrimaryKey" : false,
          "notNull" : false,
          "length" : 10,
          "precision" : 19,
          "generator" : "assigned",
          "isRelated" : false,
          "scale" : 0
        }, {
          "fieldName" : "arrivalDate",
          "type" : "date",
          "fullyQualifiedType" : "date",
          "columnName" : "ARRIVAL_DATE",
          "isPrimaryKey" : false,
          "notNull" : false,
          "length" : 10,
          "precision" : 19,
          "generator" : "assigned",
          "isRelated" : false,
          "scale" : 0
        }, {
          "fieldName" : "travelDuration",
          "type" : "string",
          "fullyQualifiedType" : "string",
          "columnName" : "TRAVEL_DURATION",
          "isPrimaryKey" : false,
          "notNull" : false,
          "length" : 255,
          "precision" : 19,
          "generator" : "assigned",
          "isRelated" : false,
          "scale" : 0
        }, {
          "fieldName" : "departureTime",
          "type" : "time",
          "fullyQualifiedType" : "time",
          "columnName" : "DEPARTURE_TIME",
          "isPrimaryKey" : false,
          "notNull" : false,
          "length" : 8,
          "precision" : 19,
          "generator" : "assigned",
          "isRelated" : false,
          "scale" : 0
        }, {
          "fieldName" : "arrivalTime",
          "type" : "time",
          "fullyQualifiedType" : "time",
          "columnName" : "ARRIVAL_TIME",
          "isPrimaryKey" : false,
          "notNull" : false,
          "length" : 8,
          "precision" : 19,
          "generator" : "assigned",
          "isRelated" : false,
          "scale" : 0
        }, {
          "fieldName" : "firstClassSeats",
          "type" : "integer",
          "fullyQualifiedType" : "integer",
          "columnName" : "FIRST_CLASS_SEATS",
          "isPrimaryKey" : false,
          "notNull" : true,
          "length" : 255,
          "precision" : 10,
          "generator" : "assigned",
          "isRelated" : false,
          "scale" : 0
        }, {
          "fieldName" : "businessClassSeats",
          "type" : "integer",
          "fullyQualifiedType" : "integer",
          "columnName" : "BUSINESS_CLASS_SEATS",
          "isPrimaryKey" : false,
          "notNull" : true,
          "length" : 255,
          "precision" : 10,
          "generator" : "assigned",
          "isRelated" : false,
          "scale" : 0
        }, {
          "fieldName" : "economySeats",
          "type" : "integer",
          "fullyQualifiedType" : "integer",
          "columnName" : "ECONOMY_SEATS",
          "isPrimaryKey" : false,
          "notNull" : true,
          "length" : 255,
          "precision" : 10,
          "generator" : "assigned",
          "isRelated" : false,
          "scale" : 0
        }, {
          "fieldName" : "businessClassFare",
          "type" : "integer",
          "fullyQualifiedType" : "integer",
          "columnName" : "BUSINESS_CLASS_FARE",
          "isPrimaryKey" : false,
          "notNull" : true,
          "length" : 255,
          "precision" : 10,
          "generator" : "assigned",
          "isRelated" : false,
          "scale" : 0
        }, {
          "fieldName" : "economyClassFare",
          "type" : "integer",
          "fullyQualifiedType" : "integer",
          "columnName" : "ECONOMY_CLASS_FARE",
          "isPrimaryKey" : false,
          "notNull" : true,
          "length" : 255,
          "precision" : 10,
          "generator" : "assigned",
          "isRelated" : false,
          "scale" : 0
        }, {
          "fieldName" : "firstClassFare",
          "type" : "integer",
          "fullyQualifiedType" : "integer",
          "columnName" : "FIRST_CLASS_FARE",
          "isPrimaryKey" : false,
          "notNull" : true,
          "length" : 255,
          "precision" : 10,
          "generator" : "assigned",
          "isRelated" : false,
          "scale" : 0
        }, {
          "fieldName" : "airlines",
          "type" : "string",
          "fullyQualifiedType" : "string",
          "columnName" : "AIRLINES",
          "isPrimaryKey" : false,
          "notNull" : false,
          "length" : 255,
          "precision" : 19,
          "generator" : "assigned",
          "isRelated" : false,
          "defaultValue" : "",
          "scale" : 0
        } ]
      }, {
        "fieldName" : "flightByToFlightId",
        "type" : "integer",
        "fullyQualifiedType" : "integer",
        "columnName" : "TO_FLIGHT_ID",
        "isPrimaryKey" : false,
        "notNull" : false,
        "length" : 255,
        "precision" : 10,
        "generator" : "assigned",
        "isRelated" : true,
        "relatedTableName" : "FLIGHT",
        "relatedEntityName" : "Flight",
        "relatedColumnName" : "toFlightId",
        "relatedFieldName" : "flightByToFlightId.id",
        "isList" : false,
        "targetTable" : "FLIGHT",
        "scale" : 0,
        "columns" : [ {
          "fieldName" : "airportByDestinationAirport",
          "type" : "string",
          "fullyQualifiedType" : "string",
          "columnName" : "DESTINATION_AIRPORT",
          "isPrimaryKey" : false,
          "notNull" : false,
          "length" : 255,
          "precision" : 19,
          "generator" : "assigned",
          "isRelated" : true,
          "relatedColumnName" : "destinationAirport",
          "targetTable" : "AIRPORT",
          "scale" : 0
        }, {
          "fieldName" : "airportBySourceAirport",
          "type" : "string",
          "fullyQualifiedType" : "string",
          "columnName" : "SOURCE_AIRPORT",
          "isPrimaryKey" : false,
          "notNull" : false,
          "length" : 255,
          "precision" : 19,
          "generator" : "assigned",
          "isRelated" : true,
          "relatedColumnName" : "sourceAirport",
          "targetTable" : "AIRPORT",
          "scale" : 0
        }, {
          "fieldName" : "fareDetailsByFareDetails",
          "type" : "integer",
          "fullyQualifiedType" : "integer",
          "columnName" : "FARE_DETAILS",
          "isPrimaryKey" : false,
          "notNull" : false,
          "length" : 255,
          "precision" : 10,
          "generator" : "assigned",
          "isRelated" : true,
          "relatedColumnName" : "fareDetails",
          "targetTable" : "FARE_DETAILS",
          "scale" : 0
        }, {
          "fieldName" : "id",
          "type" : "integer",
          "fullyQualifiedType" : "integer",
          "columnName" : "ID",
          "isPrimaryKey" : true,
          "notNull" : true,
          "length" : 255,
          "precision" : 10,
          "generator" : "identity",
          "isRelated" : false,
          "scale" : 0
        }, {
          "fieldName" : "number",
          "type" : "string",
          "fullyQualifiedType" : "string",
          "columnName" : "NUMBER",
          "isPrimaryKey" : false,
          "notNull" : true,
          "length" : 20,
          "precision" : 19,
          "generator" : "assigned",
          "isRelated" : false,
          "scale" : 0
        }, {
          "fieldName" : "departureDate",
          "type" : "date",
          "fullyQualifiedType" : "date",
          "columnName" : "DEPARTURE_DATE",
          "isPrimaryKey" : false,
          "notNull" : false,
          "length" : 10,
          "precision" : 19,
          "generator" : "assigned",
          "isRelated" : false,
          "scale" : 0
        }, {
          "fieldName" : "arrivalDate",
          "type" : "date",
          "fullyQualifiedType" : "date",
          "columnName" : "ARRIVAL_DATE",
          "isPrimaryKey" : false,
          "notNull" : false,
          "length" : 10,
          "precision" : 19,
          "generator" : "assigned",
          "isRelated" : false,
          "scale" : 0
        }, {
          "fieldName" : "travelDuration",
          "type" : "string",
          "fullyQualifiedType" : "string",
          "columnName" : "TRAVEL_DURATION",
          "isPrimaryKey" : false,
          "notNull" : false,
          "length" : 255,
          "precision" : 19,
          "generator" : "assigned",
          "isRelated" : false,
          "scale" : 0
        }, {
          "fieldName" : "departureTime",
          "type" : "time",
          "fullyQualifiedType" : "time",
          "columnName" : "DEPARTURE_TIME",
          "isPrimaryKey" : false,
          "notNull" : false,
          "length" : 8,
          "precision" : 19,
          "generator" : "assigned",
          "isRelated" : false,
          "scale" : 0
        }, {
          "fieldName" : "arrivalTime",
          "type" : "time",
          "fullyQualifiedType" : "time",
          "columnName" : "ARRIVAL_TIME",
          "isPrimaryKey" : false,
          "notNull" : false,
          "length" : 8,
          "precision" : 19,
          "generator" : "assigned",
          "isRelated" : false,
          "scale" : 0
        }, {
          "fieldName" : "firstClassSeats",
          "type" : "integer",
          "fullyQualifiedType" : "integer",
          "columnName" : "FIRST_CLASS_SEATS",
          "isPrimaryKey" : false,
          "notNull" : true,
          "length" : 255,
          "precision" : 10,
          "generator" : "assigned",
          "isRelated" : false,
          "scale" : 0
        }, {
          "fieldName" : "businessClassSeats",
          "type" : "integer",
          "fullyQualifiedType" : "integer",
          "columnName" : "BUSINESS_CLASS_SEATS",
          "isPrimaryKey" : false,
          "notNull" : true,
          "length" : 255,
          "precision" : 10,
          "generator" : "assigned",
          "isRelated" : false,
          "scale" : 0
        }, {
          "fieldName" : "economySeats",
          "type" : "integer",
          "fullyQualifiedType" : "integer",
          "columnName" : "ECONOMY_SEATS",
          "isPrimaryKey" : false,
          "notNull" : true,
          "length" : 255,
          "precision" : 10,
          "generator" : "assigned",
          "isRelated" : false,
          "scale" : 0
        }, {
          "fieldName" : "businessClassFare",
          "type" : "integer",
          "fullyQualifiedType" : "integer",
          "columnName" : "BUSINESS_CLASS_FARE",
          "isPrimaryKey" : false,
          "notNull" : true,
          "length" : 255,
          "precision" : 10,
          "generator" : "assigned",
          "isRelated" : false,
          "scale" : 0
        }, {
          "fieldName" : "economyClassFare",
          "type" : "integer",
          "fullyQualifiedType" : "integer",
          "columnName" : "ECONOMY_CLASS_FARE",
          "isPrimaryKey" : false,
          "notNull" : true,
          "length" : 255,
          "precision" : 10,
          "generator" : "assigned",
          "isRelated" : false,
          "scale" : 0
        }, {
          "fieldName" : "firstClassFare",
          "type" : "integer",
          "fullyQualifiedType" : "integer",
          "columnName" : "FIRST_CLASS_FARE",
          "isPrimaryKey" : false,
          "notNull" : true,
          "length" : 255,
          "precision" : 10,
          "generator" : "assigned",
          "isRelated" : false,
          "scale" : 0
        }, {
          "fieldName" : "airlines",
          "type" : "string",
          "fullyQualifiedType" : "string",
          "columnName" : "AIRLINES",
          "isPrimaryKey" : false,
          "notNull" : false,
          "length" : 255,
          "precision" : 19,
          "generator" : "assigned",
          "isRelated" : false,
          "defaultValue" : "",
          "scale" : 0
        } ]
      }, {
        "fieldName" : "journey",
        "type" : "integer",
        "fullyQualifiedType" : "integer",
        "columnName" : "JOURNEY_ID",
        "isPrimaryKey" : false,
        "notNull" : false,
        "length" : 255,
        "precision" : 10,
        "generator" : "assigned",
        "isRelated" : true,
        "relatedTableName" : "JOURNEY",
        "relatedEntityName" : "Journey",
        "relatedColumnName" : "journeyId",
        "relatedFieldName" : "journey.id",
        "isList" : false,
        "targetTable" : "JOURNEY",
        "scale" : 0,
        "columns" : [ {
          "fieldName" : "id",
          "type" : "integer",
          "fullyQualifiedType" : "integer",
          "columnName" : "ID",
          "isPrimaryKey" : true,
          "notNull" : true,
          "length" : 255,
          "precision" : 10,
          "generator" : "identity",
          "isRelated" : false,
          "scale" : 0
        }, {
          "fieldName" : "type",
          "type" : "string",
          "fullyQualifiedType" : "string",
          "columnName" : "TYPE",
          "isPrimaryKey" : false,
          "notNull" : false,
          "length" : 255,
          "precision" : 19,
          "generator" : "assigned",
          "isRelated" : false,
          "scale" : 0
        } ]
      }, {
        "fieldName" : "passengerByPrimaryPassengerId",
        "type" : "integer",
        "fullyQualifiedType" : "integer",
        "columnName" : "PRIMARY_PASSENGER_ID",
        "isPrimaryKey" : false,
        "notNull" : false,
        "length" : 255,
        "precision" : 10,
        "generator" : "assigned",
        "isRelated" : true,
        "relatedTableName" : "PASSENGER",
        "relatedEntityName" : "Passenger",
        "relatedColumnName" : "primaryPassengerId",
        "relatedFieldName" : "passengerByPrimaryPassengerId.id",
        "isList" : false,
        "targetTable" : "PASSENGER",
        "scale" : 0,
        "columns" : [ {
          "fieldName" : "id",
          "type" : "integer",
          "fullyQualifiedType" : "integer",
          "columnName" : "ID",
          "isPrimaryKey" : true,
          "notNull" : true,
          "length" : 255,
          "precision" : 10,
          "generator" : "identity",
          "isRelated" : false,
          "scale" : 0
        }, {
          "fieldName" : "address",
          "type" : "string",
          "fullyQualifiedType" : "string",
          "columnName" : "ADDRESS",
          "isPrimaryKey" : false,
          "notNull" : false,
          "length" : 255,
          "precision" : 19,
          "generator" : "assigned",
          "isRelated" : false,
          "scale" : 0
        }, {
          "fieldName" : "age",
          "type" : "integer",
          "fullyQualifiedType" : "integer",
          "columnName" : "AGE",
          "isPrimaryKey" : false,
          "notNull" : false,
          "length" : 255,
          "precision" : 10,
          "generator" : "assigned",
          "isRelated" : false,
          "scale" : 0
        }, {
          "fieldName" : "country",
          "type" : "string",
          "fullyQualifiedType" : "string",
          "columnName" : "COUNTRY",
          "isPrimaryKey" : false,
          "notNull" : false,
          "length" : 255,
          "precision" : 19,
          "generator" : "assigned",
          "isRelated" : false,
          "scale" : 0
        }, {
          "fieldName" : "email",
          "type" : "string",
          "fullyQualifiedType" : "string",
          "columnName" : "EMAIL",
          "isPrimaryKey" : false,
          "notNull" : true,
          "length" : 255,
          "precision" : 19,
          "generator" : "assigned",
          "isRelated" : false,
          "scale" : 0
        }, {
          "fieldName" : "firstName",
          "type" : "string",
          "fullyQualifiedType" : "string",
          "columnName" : "FIRST_NAME",
          "isPrimaryKey" : false,
          "notNull" : true,
          "length" : 255,
          "precision" : 19,
          "generator" : "assigned",
          "isRelated" : false,
          "scale" : 0
        }, {
          "fieldName" : "frequentFlyerNumber",
          "type" : "string",
          "fullyQualifiedType" : "string",
          "columnName" : "FREQUENT_FLYER_NUMBER",
          "isPrimaryKey" : false,
          "notNull" : false,
          "length" : 255,
          "precision" : 19,
          "generator" : "assigned",
          "isRelated" : false,
          "scale" : 0
        }, {
          "fieldName" : "lastName",
          "type" : "string",
          "fullyQualifiedType" : "string",
          "columnName" : "LAST_NAME",
          "isPrimaryKey" : false,
          "notNull" : false,
          "length" : 255,
          "precision" : 19,
          "generator" : "assigned",
          "isRelated" : false,
          "scale" : 0
        }, {
          "fieldName" : "middleName",
          "type" : "string",
          "fullyQualifiedType" : "string",
          "columnName" : "MIDDLE_NAME",
          "isPrimaryKey" : false,
          "notNull" : false,
          "length" : 255,
          "precision" : 19,
          "generator" : "assigned",
          "isRelated" : false,
          "scale" : 0
        }, {
          "fieldName" : "phone",
          "type" : "string",
          "fullyQualifiedType" : "string",
          "columnName" : "PHONE",
          "isPrimaryKey" : false,
          "notNull" : true,
          "length" : 255,
          "precision" : 19,
          "generator" : "assigned",
          "isRelated" : false,
          "scale" : 0
        }, {
          "fieldName" : "title",
          "type" : "string",
          "fullyQualifiedType" : "string",
          "columnName" : "TITLE",
          "isPrimaryKey" : false,
          "notNull" : false,
          "length" : 255,
          "precision" : 19,
          "generator" : "assigned",
          "isRelated" : false,
          "scale" : 0
        } ]
      }, {
        "fieldName" : "passengerByPassengerId",
        "type" : "integer",
        "fullyQualifiedType" : "integer",
        "columnName" : "PASSENGER_ID",
        "isPrimaryKey" : false,
        "notNull" : false,
        "length" : 255,
        "precision" : 10,
        "generator" : "assigned",
        "isRelated" : true,
        "relatedTableName" : "PASSENGER",
        "relatedEntityName" : "Passenger",
        "relatedColumnName" : "passengerId",
        "relatedFieldName" : "passengerByPassengerId.id",
        "isList" : false,
        "targetTable" : "PASSENGER",
        "scale" : 0,
        "columns" : [ {
          "fieldName" : "id",
          "type" : "integer",
          "fullyQualifiedType" : "integer",
          "columnName" : "ID",
          "isPrimaryKey" : true,
          "notNull" : true,
          "length" : 255,
          "precision" : 10,
          "generator" : "identity",
          "isRelated" : false,
          "scale" : 0
        }, {
          "fieldName" : "address",
          "type" : "string",
          "fullyQualifiedType" : "string",
          "columnName" : "ADDRESS",
          "isPrimaryKey" : false,
          "notNull" : false,
          "length" : 255,
          "precision" : 19,
          "generator" : "assigned",
          "isRelated" : false,
          "scale" : 0
        }, {
          "fieldName" : "age",
          "type" : "integer",
          "fullyQualifiedType" : "integer",
          "columnName" : "AGE",
          "isPrimaryKey" : false,
          "notNull" : false,
          "length" : 255,
          "precision" : 10,
          "generator" : "assigned",
          "isRelated" : false,
          "scale" : 0
        }, {
          "fieldName" : "country",
          "type" : "string",
          "fullyQualifiedType" : "string",
          "columnName" : "COUNTRY",
          "isPrimaryKey" : false,
          "notNull" : false,
          "length" : 255,
          "precision" : 19,
          "generator" : "assigned",
          "isRelated" : false,
          "scale" : 0
        }, {
          "fieldName" : "email",
          "type" : "string",
          "fullyQualifiedType" : "string",
          "columnName" : "EMAIL",
          "isPrimaryKey" : false,
          "notNull" : true,
          "length" : 255,
          "precision" : 19,
          "generator" : "assigned",
          "isRelated" : false,
          "scale" : 0
        }, {
          "fieldName" : "firstName",
          "type" : "string",
          "fullyQualifiedType" : "string",
          "columnName" : "FIRST_NAME",
          "isPrimaryKey" : false,
          "notNull" : true,
          "length" : 255,
          "precision" : 19,
          "generator" : "assigned",
          "isRelated" : false,
          "scale" : 0
        }, {
          "fieldName" : "frequentFlyerNumber",
          "type" : "string",
          "fullyQualifiedType" : "string",
          "columnName" : "FREQUENT_FLYER_NUMBER",
          "isPrimaryKey" : false,
          "notNull" : false,
          "length" : 255,
          "precision" : 19,
          "generator" : "assigned",
          "isRelated" : false,
          "scale" : 0
        }, {
          "fieldName" : "lastName",
          "type" : "string",
          "fullyQualifiedType" : "string",
          "columnName" : "LAST_NAME",
          "isPrimaryKey" : false,
          "notNull" : false,
          "length" : 255,
          "precision" : 19,
          "generator" : "assigned",
          "isRelated" : false,
          "scale" : 0
        }, {
          "fieldName" : "middleName",
          "type" : "string",
          "fullyQualifiedType" : "string",
          "columnName" : "MIDDLE_NAME",
          "isPrimaryKey" : false,
          "notNull" : false,
          "length" : 255,
          "precision" : 19,
          "generator" : "assigned",
          "isRelated" : false,
          "scale" : 0
        }, {
          "fieldName" : "phone",
          "type" : "string",
          "fullyQualifiedType" : "string",
          "columnName" : "PHONE",
          "isPrimaryKey" : false,
          "notNull" : true,
          "length" : 255,
          "precision" : 19,
          "generator" : "assigned",
          "isRelated" : false,
          "scale" : 0
        }, {
          "fieldName" : "title",
          "type" : "string",
          "fullyQualifiedType" : "string",
          "columnName" : "TITLE",
          "isPrimaryKey" : false,
          "notNull" : false,
          "length" : 255,
          "precision" : 19,
          "generator" : "assigned",
          "isRelated" : false,
          "scale" : 0
        } ]
      }, {
        "fieldName" : "service",
        "type" : "integer",
        "fullyQualifiedType" : "integer",
        "columnName" : "SERVICE_ID",
        "isPrimaryKey" : false,
        "notNull" : false,
        "length" : 255,
        "precision" : 10,
        "generator" : "assigned",
        "isRelated" : true,
        "relatedTableName" : "SERVICE",
        "relatedEntityName" : "Service",
        "relatedColumnName" : "serviceId",
        "relatedFieldName" : "service.id",
        "isList" : false,
        "targetTable" : "SERVICE",
        "scale" : 0,
        "columns" : [ {
          "fieldName" : "id",
          "type" : "integer",
          "fullyQualifiedType" : "integer",
          "columnName" : "ID",
          "isPrimaryKey" : true,
          "notNull" : true,
          "length" : 255,
          "precision" : 10,
          "generator" : "identity",
          "isRelated" : false,
          "scale" : 0
        }, {
          "fieldName" : "charge",
          "type" : "integer",
          "fullyQualifiedType" : "integer",
          "columnName" : "CHARGE",
          "isPrimaryKey" : false,
          "notNull" : true,
          "length" : 255,
          "precision" : 10,
          "generator" : "assigned",
          "isRelated" : false,
          "scale" : 0
        }, {
          "fieldName" : "name",
          "type" : "string",
          "fullyQualifiedType" : "string",
          "columnName" : "NAME",
          "isPrimaryKey" : false,
          "notNull" : true,
          "length" : 255,
          "precision" : 19,
          "generator" : "assigned",
          "isRelated" : false,
          "scale" : 0
        } ]
      }, {
        "fieldName" : "id",
        "type" : "integer",
        "fullyQualifiedType" : "integer",
        "columnName" : "ID",
        "isPrimaryKey" : true,
        "notNull" : true,
        "length" : 255,
        "precision" : 10,
        "generator" : "identity",
        "isRelated" : false,
        "scale" : 0
      }, {
        "fieldName" : "pnr",
        "type" : "string",
        "fullyQualifiedType" : "string",
        "columnName" : "PNR",
        "isPrimaryKey" : false,
        "notNull" : false,
        "length" : 255,
        "precision" : 19,
        "generator" : "assigned",
        "isRelated" : false,
        "scale" : 0
      }, {
        "fieldName" : "classType",
        "type" : "string",
        "fullyQualifiedType" : "string",
        "columnName" : "CLASS_TYPE",
        "isPrimaryKey" : false,
        "notNull" : true,
        "length" : 255,
        "precision" : 19,
        "generator" : "assigned",
        "isRelated" : false,
        "scale" : 0
      }, {
        "fieldName" : "totalQuote",
        "type" : "integer",
        "fullyQualifiedType" : "integer",
        "columnName" : "TOTAL_QUOTE",
        "isPrimaryKey" : false,
        "notNull" : true,
        "length" : 255,
        "precision" : 10,
        "generator" : "assigned",
        "isRelated" : false,
        "scale" : 0
      }, {
        "fieldName" : "totalPassengers",
        "type" : "integer",
        "fullyQualifiedType" : "integer",
        "columnName" : "TOTAL_PASSENGERS",
        "isPrimaryKey" : false,
        "notNull" : true,
        "length" : 255,
        "precision" : 10,
        "generator" : "assigned",
        "isRelated" : false,
        "scale" : 0
      }, {
        "fieldName" : "tripType",
        "type" : "string",
        "fullyQualifiedType" : "string",
        "columnName" : "TRIP_TYPE",
        "isPrimaryKey" : false,
        "notNull" : true,
        "length" : 255,
        "precision" : 19,
        "generator" : "assigned",
        "isRelated" : false,
        "scale" : 0
      }, {
        "fieldName" : "comments",
        "type" : "string",
        "fullyQualifiedType" : "string",
        "columnName" : "COMMENTS",
        "isPrimaryKey" : false,
        "notNull" : false,
        "length" : 255,
        "precision" : 19,
        "generator" : "assigned",
        "isRelated" : false,
        "scale" : 0
      }, {
        "fieldName" : "bookingDate",
        "type" : "date",
        "fullyQualifiedType" : "date",
        "columnName" : "BOOKING_DATE",
        "isPrimaryKey" : false,
        "notNull" : false,
        "length" : 10,
        "precision" : 19,
        "generator" : "assigned",
        "isRelated" : false,
        "scale" : 0
      }, {
        "fieldName" : "toFare",
        "type" : "string",
        "fullyQualifiedType" : "string",
        "columnName" : "TO_FARE",
        "isPrimaryKey" : false,
        "notNull" : false,
        "length" : 255,
        "precision" : 19,
        "generator" : "assigned",
        "isRelated" : false,
        "scale" : 0
      }, {
        "fieldName" : "froFare",
        "type" : "string",
        "fullyQualifiedType" : "string",
        "columnName" : "FRO_FARE",
        "isPrimaryKey" : false,
        "notNull" : false,
        "length" : 255,
        "precision" : 19,
        "generator" : "assigned",
        "isRelated" : false,
        "scale" : 0
      } ],
      "entityName" : "Booking",
      "fullyQualifiedName" : "com.fdcallcenter.fdcallcenterdb.Booking",
      "tableType" : "TABLE",
      "primaryFields" : [ "id" ]
    },
    "bindCount" : 0,
    "tableName" : "BOOKING",
    "tableType" : "TABLE",
    "properties" : [ "flightByFroFlightId", "flightByToFlightId", "journey", "passengerByPrimaryPassengerId", "passengerByPassengerId", "service" ],
    "relatedTables" : [ {
      "columnName" : "flightByFroFlightId",
      "relationName" : "flightByFroFlightId",
      "type" : "Flight",
      "watchOn" : "FDCallCenterDBFlightData",
      "package" : "com.fdcallcenter.fdcallcenterdb.Booking"
    }, {
      "columnName" : "flightByToFlightId",
      "relationName" : "flightByToFlightId",
      "type" : "Flight",
      "watchOn" : "FDCallCenterDBFlightData",
      "package" : "com.fdcallcenter.fdcallcenterdb.Booking"
    }, {
      "columnName" : "journey",
      "relationName" : "journey",
      "type" : "Journey",
      "watchOn" : "FDCallCenterDBJourneyData",
      "package" : "com.fdcallcenter.fdcallcenterdb.Booking"
    }, {
      "columnName" : "passengerByPrimaryPassengerId",
      "relationName" : "passengerByPrimaryPassengerId",
      "type" : "Passenger",
      "watchOn" : "FDCallCenterDBPassengerData",
      "package" : "com.fdcallcenter.fdcallcenterdb.Booking"
    }, {
      "columnName" : "passengerByPassengerId",
      "relationName" : "passengerByPassengerId",
      "type" : "Passenger",
      "watchOn" : "FDCallCenterDBPassengerData",
      "package" : "com.fdcallcenter.fdcallcenterdb.Booking"
    }, {
      "columnName" : "service",
      "relationName" : "service",
      "type" : "Service",
      "watchOn" : "FDCallCenterDBServiceData",
      "package" : "com.fdcallcenter.fdcallcenterdb.Booking"
    } ],
    "filterFields" : { },
    "package" : "com.fdcallcenter.fdcallcenterdb.Booking"
  },
  "lvInsertPassenger" : {
    "_id" : "wm-lvInsertPassenger-wm.LiveVariable-1455691317755",
    "name" : "lvInsertPassenger",
    "owner" : "Page",
    "category" : "wm.LiveVariable",
    "dataBinding" : [ {
      "target" : "email",
      "value" : "bind:Widgets.passengerEmailLabel.datavalue",
      "type" : "string"
    }, {
      "target" : "firstName",
      "value" : "bind:Widgets.firstNameLabel.datavalue",
      "type" : "string"
    }, {
      "target" : "lastName",
      "value" : "bind:Widgets.lastNameText.datavalue",
      "type" : "string"
    }, {
      "target" : "phone",
      "value" : "bind:Widgets.phoneNumberLabel.datavalue",
      "type" : "string"
    }, {
      "target" : "title",
      "value" : "bind:Widgets.passengerTitleSelect.datavalue",
      "type" : "string"
    } ],
    "operation" : "insert",
    "dataSet" : [ ],
    "type" : "Passenger",
    "isList" : false,
    "saveInPhonegap" : false,
    "firstRow" : 0,
    "maxResults" : 20,
    "designMaxResults" : 10,
    "onSuccess" : "Variables.nvPassengerInsertSuccess.invoke();Variables.lvAssocitatePassengerWithBooking.createRecord()",
    "onError" : "Variables.nvPassengerInsertFailure.invoke()",
    "inFlightBehavior" : "executeLast",
    "startUpdate" : false,
    "autoUpdate" : false,
    "transformationRequired" : false,
    "liveSource" : "FDCallCenterDB",
    "ignoreCase" : true,
    "matchMode" : "start",
    "propertiesMap" : {
      "columns" : [ {
        "fieldName" : "id",
        "type" : "integer",
        "fullyQualifiedType" : "integer",
        "columnName" : "ID",
        "isPrimaryKey" : true,
        "notNull" : true,
        "length" : 255,
        "precision" : 10,
        "generator" : "identity",
        "isRelated" : false,
        "scale" : 0
      }, {
        "fieldName" : "address",
        "type" : "string",
        "fullyQualifiedType" : "string",
        "columnName" : "ADDRESS",
        "isPrimaryKey" : false,
        "notNull" : false,
        "length" : 255,
        "precision" : 19,
        "generator" : "assigned",
        "isRelated" : false,
        "scale" : 0
      }, {
        "fieldName" : "age",
        "type" : "integer",
        "fullyQualifiedType" : "integer",
        "columnName" : "AGE",
        "isPrimaryKey" : false,
        "notNull" : false,
        "length" : 255,
        "precision" : 10,
        "generator" : "assigned",
        "isRelated" : false,
        "scale" : 0
      }, {
        "fieldName" : "country",
        "type" : "string",
        "fullyQualifiedType" : "string",
        "columnName" : "COUNTRY",
        "isPrimaryKey" : false,
        "notNull" : false,
        "length" : 255,
        "precision" : 19,
        "generator" : "assigned",
        "isRelated" : false,
        "scale" : 0
      }, {
        "fieldName" : "email",
        "type" : "string",
        "fullyQualifiedType" : "string",
        "columnName" : "EMAIL",
        "isPrimaryKey" : false,
        "notNull" : true,
        "length" : 255,
        "precision" : 19,
        "generator" : "assigned",
        "isRelated" : false,
        "scale" : 0
      }, {
        "fieldName" : "firstName",
        "type" : "string",
        "fullyQualifiedType" : "string",
        "columnName" : "FIRST_NAME",
        "isPrimaryKey" : false,
        "notNull" : true,
        "length" : 255,
        "precision" : 19,
        "generator" : "assigned",
        "isRelated" : false,
        "scale" : 0
      }, {
        "fieldName" : "frequentFlyerNumber",
        "type" : "string",
        "fullyQualifiedType" : "string",
        "columnName" : "FREQUENT_FLYER_NUMBER",
        "isPrimaryKey" : false,
        "notNull" : false,
        "length" : 255,
        "precision" : 19,
        "generator" : "assigned",
        "isRelated" : false,
        "scale" : 0
      }, {
        "fieldName" : "lastName",
        "type" : "string",
        "fullyQualifiedType" : "string",
        "columnName" : "LAST_NAME",
        "isPrimaryKey" : false,
        "notNull" : false,
        "length" : 255,
        "precision" : 19,
        "generator" : "assigned",
        "isRelated" : false,
        "scale" : 0
      }, {
        "fieldName" : "middleName",
        "type" : "string",
        "fullyQualifiedType" : "string",
        "columnName" : "MIDDLE_NAME",
        "isPrimaryKey" : false,
        "notNull" : false,
        "length" : 255,
        "precision" : 19,
        "generator" : "assigned",
        "isRelated" : false,
        "scale" : 0
      }, {
        "fieldName" : "phone",
        "type" : "string",
        "fullyQualifiedType" : "string",
        "columnName" : "PHONE",
        "isPrimaryKey" : false,
        "notNull" : true,
        "length" : 255,
        "precision" : 19,
        "generator" : "assigned",
        "isRelated" : false,
        "scale" : 0
      }, {
        "fieldName" : "title",
        "type" : "string",
        "fullyQualifiedType" : "string",
        "columnName" : "TITLE",
        "isPrimaryKey" : false,
        "notNull" : false,
        "length" : 255,
        "precision" : 19,
        "generator" : "assigned",
        "isRelated" : false,
        "scale" : 0
      } ],
      "entityName" : "Passenger",
      "fullyQualifiedName" : "com.fdcallcenter.fdcallcenterdb.Passenger",
      "tableType" : "TABLE",
      "primaryFields" : [ "id" ]
    },
    "tableName" : "PASSENGER",
    "tableType" : "TABLE",
    "properties" : [ ],
    "relatedTables" : [ ],
    "filterFields" : { },
    "inputFields" : { },
    "package" : "com.fdcallcenter.fdcallcenterdb.Passenger"
  },
  "nvPassengerInsertFailure" : {
    "_id" : "wm-nvPassengerInsertFailure-wm.NotificationVariable-1455691317757",
    "name" : "nvPassengerInsertFailure",
    "owner" : "Page",
    "category" : "wm.NotificationVariable",
    "dataBinding" : [ {
      "target" : "content",
      "value" : "inline",
      "type" : "list"
    }, {
      "target" : "text",
      "value" : "Passenger is not added. Please give valid information",
      "type" : "string"
    }, {
      "target" : "duration",
      "value" : "2000",
      "type" : "list"
    }, {
      "target" : "class",
      "value" : "Error",
      "type" : "list"
    }, {
      "target" : "toasterPosition",
      "value" : "bottom right",
      "type" : "list"
    } ],
    "operation" : "toast"
  },
  "nvPassengerInsertSuccess" : {
    "_id" : "wm-nvPassengerInsertSuccess-wm.NotificationVariable-1455691317755",
    "name" : "nvPassengerInsertSuccess",
    "owner" : "Page",
    "category" : "wm.NotificationVariable",
    "dataBinding" : [ {
      "target" : "content",
      "value" : "inline",
      "type" : "list"
    }, {
      "target" : "text",
      "value" : "Passenger added successfully!",
      "type" : "string"
    }, {
      "target" : "duration",
      "value" : "2000",
      "type" : "list"
    }, {
      "target" : "class",
      "value" : "Success",
      "type" : "list"
    }, {
      "target" : "toasterPosition",
      "value" : "bottom right",
      "type" : "list"
    } ],
    "operation" : "toast"
  },
  "svGetPassengersbyBookingID" : {
    "_id" : "wm-svGetPassengersbyBookingID-wm.ServiceVariable-1471862108357",
    "name" : "svGetPassengersbyBookingID",
    "owner" : "Page",
    "category" : "wm.ServiceVariable",
    "dataBinding" : [ {
      "target" : "data",
      "value" : "bind:pageParams.BookingId",
      "type" : "integer"
    } ],
    "type" : "FDCallCenterDBAllPassengersByBookingIdrtnType",
    "service" : "FDCallCenterDB",
    "operation" : "executeAllPassengersByBookingId",
    "operationId" : "QueryExecutionController_executeAllPassengersByBookingId",
    "operationType" : "get",
    "serviceType" : "DataService",
    "dataSet" : [ ],
    "isList" : true,
    "maxResults" : 20,
    "designMaxResults" : 10,
    "onSuccess" : "svGetPassengersbyBookingIDonSuccess($event, $scope)",
    "startUpdate" : false,
    "autoUpdate" : false,
    "inFlightBehavior" : "executeLast",
    "transformationRequired" : false,
    "saveInPhonegap" : false,
    "controller" : "QueryExecution"
  },
  "update_coments" : {
    "_id" : "wm-FDCallCenterDBExecuteUpdate_coments-wm.ServiceVariable-1456489423356",
    "name" : "update_coments",
    "owner" : "Page",
    "category" : "wm.ServiceVariable",
    "dataBinding" : [ {
      "target" : "id",
      "value" : "bind:pageParams.BookingId",
      "type" : "integer"
    } ],
    "type" : "FDCallCenterDBupdate_comentsrtnType",
    "service" : "FDCallCenterDB",
    "operation" : "executeUpdate_coments",
    "operationId" : "QueryExecutionController_executeUpdate_coments",
    "operationType" : "put",
    "serviceType" : "DataService",
    "dataSet" : {
      "dataValue" : ""
    },
    "isList" : false,
    "firstRow" : 0,
    "maxResults" : 20,
    "designMaxResults" : 10,
    "startUpdate" : false,
    "autoUpdate" : false,
    "inFlightBehavior" : "executeLast",
    "transformationRequired" : false,
    "saveInPhonegap" : false,
    "isDefault" : true,
    "controller" : "QueryExecution"
  }
}